<?xml version="1.0" encoding="UTF-8"?>
<svg width="24px" height="24px" viewBox="0 0 24 24" version="1.1" xmlns="http://www.w3.org/2000/svg" xmlns:xlink="http://www.w3.org/1999/xlink">
    <!-- Generator: Sketch 58 (84663) - https://sketch.com -->
    <title>fixes-icon</title>
    <desc>Created with Sketch.</desc>
    <g id="Landings" stroke="none" stroke-width="1" fill="none" fill-rule="evenodd">
        <g id="updates_page5" transform="translate(-250.000000, -1503.000000)" fill="#000000" fill-rule="nonzero">
            <path d="M266.907107,1506.2205 C267.223871,1504.48948 266.760663,1502.86655 265.050606,1501.79088 L264.359596,1505.56753 L261.800865,1506.52332 L259.72624,1504.83165 L260.426928,1501 C258.8974,1501.54257 257.400416,1502.88503 257.075516,1504.65916 C256.678404,1506.82942 257.987256,1508.90443 260.079163,1509.72708 L260.098997,1520.04721 C258.583242,1520.62912 257.403553,1521.89052 257.083652,1523.50454 C256.741949,1525.23129 257.471138,1526.91017 258.831835,1527.94981 C258.831835,1527.94981 260.903429,1529.55001 263.442805,1528.79986 C265.165039,1528.29144 266.554716,1526.96325 266.905087,1525.19338 C267.310865,1523.14299 266.20743,1521.1594 264.329074,1520.23443 L264.308761,1509.5693 C265.636914,1508.91821 266.633575,1507.7146 266.907107,1506.2205 Z M264.696194,1524.47688 L263.388353,1526.84615 L260.772193,1526.84615 L259.464353,1524.47688 L260.772193,1522.10761 L263.388353,1522.10761 L264.696194,1524.47688 Z" id="fixes-icon" transform="translate(262.000000, 1515.000000) rotate(45.000000) translate(-262.000000, -1515.000000) "></path>
        </g>
    </g>
</svg>